8.2 Creating Arbitrary sumspectra.spe Files | Using Itrax Data in R
…
## [[1]]
## # A tibble: 2,048 × 2
## # Rowwise: 
##    channel count
##    <chr>   <dbl>
##  1 1.000       0
##  2 2.000       0
##  3 3.000       0
##  4 4.000       0
##  5 5.000       0
##  6 6.000       0
##  7 7.000       0
##  8 8.000       0
##  9 9.000       0
## 10 10.000      0
## # ℹ 2,038 more rows
## 
## [[2]]
## # A tibble: 2,048 × 2
## # Rowwise: 
##    channel count
##    <chr>   <dbl>
##  1 1.000       0
##  2 2.000       0
##  3 3.000       0
##  4 4.000       0
##  5 5.000       0
##  6 6.000       0
##  7 7.000       0
##  8 8.000       0
##  9 9.000       0
## 10 10.000      0
## # ℹ 2,038 more rows
## 
## [[3]]
## # A tibble: 2,048 × 2
## # Rowwise: 
##    channel count
##    <chr>   <dbl>
##  1 1.000       0
##  2 2.000       0
##  3 3.000       0
##  4 4.000       0
##  5 5.000       0
##  6 6.000       0
##  7 7.000       0
##  8 8.000       0
##  9 9.000       0
## 10 10.000      0
## # ℹ 2,038 more rows
## 
## [[4]]
## # A tibble: 2,048 × 2
## # Rowwise: 
##    channel count
##    <chr>   <dbl>
##  1 1.000       0
##  2 2.000       0
##  3 3.000       0
##  4 4.000       0
##  5 5.000       0
##  6 6.000       0
##  7 7.000       0
##  8 8.000       0
##  9 9.000       0
## 10 10.000      0
## # ℹ 2,038 more rows
## 
## [[5]]
## # A tibble: 2,048 × 2
## # Rowwise: 
##    channel count
##    <chr>   <dbl>
##  1 1.000       0
##  2 2.000       0
##  3 3.000       0
##  4 4.000       0
##  5 5.000       0
##  6 6.000       0
##  7 7.000       0
##  8 8.000       0
##  9 9.000       0
## 10 10.000      0
## # ℹ 2,038 more rows
## 
## [[6]]
## # A tibble: 2,048 × 2
## # Rowwise: 
##    channel count
##    <chr>   <dbl>
##  1 1.000       0
##  2 2.000       0
##  3 3.000       0
##  4 4.000       0
##  5 5.000       0
##  6 6.000       0
##  7 7.000       0
##  8 8.000       0
##  9 9.000       0
## 10 10.000      0
## # ℹ 2,038 more rows
## 
## [[7]]
## # A tibble: 2,048 × 2
## # Rowwise: 
##    channel count
##    <chr>   <dbl>
##  1 1.000       0
##  2 2.000       0
##  3 3.000       0
##  4 4.000       0
##  5 5.000       0
##  6 6.000       0
##  7 7.000       0
##  8 8.000       0
##  9 9.000       0
## 10 10.000      0
## # ℹ 2,038 more rows
## 
## [[8]]
## # A tibble: 2,048 × 2
## # Rowwise: 
##    channel count
##    <chr>   <dbl>
##  1 1.000       0
##  2 2.000       0
##  3 3.000       0
##  4 4.000       0
##  5 5.000       0
##  6 6.000       0
##  7 7.000       0
##  8 8.000       0
##  9 9.000       0
## 10 10.000      0
## # ℹ 2,038 more rows
## 
## [[9]]
## # A tibble: 2,048 × 2
## # Rowwise: 
##    channel count
##    <chr>   <dbl>
##  1 1.000       0
##  2 2.000       0
##  3 3.000       0
##  4 4.000       0
##  5 5.000       0
##  6 6.000       0
##  7 7.000       0
##  8 8.000       0
##  9 9.000       0
## 10 10.000      0
## # ℹ 2,038 more rows
## 
## [[10]]
## # A tibble: 2,048 × 2
## # Rowwise: 
##    channel count
##    <chr>   <dbl>
##  1 1.000       0
##  2 2.000       0
##  3 3.000       0
##  4 4.000       0
##  5 5.000       0
##  6 6.000       0
##  7 7.000       0
##  8 8.000       0
##  9 9.000       0
## 10 10.000      0
## # ℹ 2,038 more rows
## 
## [[11]]
## # A tibble: 2,048 × 2
## # Rowwise: 
##    channel count
##    <chr>   <dbl>
##  1 1.000       0
##  2 2.000       0
##  3 3.000       0
##  4 4.000       0
##  5 5.000       0
##  6 6.000       0
##  7 7.000       0
##  8 8.000       0
##  9 9.000       0
## 10 10.000      0
## # ℹ 2,038 more rows
## 
## [[12]]
## # A tibble: 2,048 × 2
## # Rowwise: 
##    channel count
##    <chr>   <dbl>
##  1 1.000       0
##  2 2.000       0
##  3 3.000       0
##  4 4.000       0
##  5 5.000       0
##  6 6.000       0
##  7 7.000       0
##  8 8.000       0
##  9 9.000       0
## 10 10.000      0
## # ℹ 2,038 more rows
## 
## [[13]]
## # A tibble: 2,048 × 2
## # Rowwise: 
##    channel count
##    <chr>   <dbl>
##  1 1.000       0
##  2 2.000       0
##  3 3.000       0
##  4 4.000       0
##  5 5.000       0
##  6 6.000       0
##  7 7.000       0
##  8 8.000       0
##  9 9.000       0
## 10 10.000      0
## # ℹ 2,038 more rows
## 
## [[14]]
## # A tibble: 2,048 × 2
## # Rowwise: 
##    channel count
##    <chr>   <dbl>
##  1 1.000       0
##  2 2.000       0
##  3 3.000       0
##  4 4.000       0
##  5 5.000       0
##  6 6.000       0
##  7 7.000       0
##  8 8.000       0
##  9 9.000       0
## 10 10.000      0
## # ℹ 2,038 more rows
## 
## [[15]]
## # A tibble: 2,048 × 2
## # Rowwise: 
##    channel count
##    <chr>   <dbl>
##  1 1.000       0
##  2 2.000       0
##  3 3.000       0
##  4 4.000       0
##  5 5.000       0
##  6 6.000       0
##  7 7.000       0
##  8 8.000       0
##  9 9.000       0
## 10 10.000      0
## # ℹ 2,038 more rows
## 
## [[16]]
## # A tibble: 2,048 × 2
## # Rowwise: 
##    channel count
##    <chr>   <dbl>
##  1 1.000       0
##  2 2.000       0
##  3 3.000       0
##  4 4.000       0
##  5 5.000       0
##  6 6.000       0
##  7 7.000       0
##  8 8.000       0
##  9 9.000       0
## 10 10.000      0
## # ℹ 2,038 more rows
## 
## [[17]]
## # A tibble: 2,048 × 2
## # Rowwise: 
##    channel count
##    <chr>   <dbl>
##  1 1.000       0
##  2 2.000       0
##  3 3.000       0
##  4 4.000       0
##  5 5.000       0
##  6 6.000       0
##  7 7.000       0
##  8 8.000       0
##  9 9.000       0
## 10 10.000      0
## # ℹ 2,038 more rows
## 
## [[18]]
## # A tibble: 2,048 × 2
## # Rowwise: 
##    channel count
##    <chr>   <dbl>
##  1 1.000       0
##  2 2.000       0
##  3 3.000       0
##  4 4.000       0
##  5 5.000       0
##  6 6.000       0
##  7 7.000       0
##  8 8.000       0
##  9 9.000       0
## 10 10.000      0
## # ℹ 2,038 more rows
## 
## [[19]]
## # A tibble: 2,048 × 2
## # Rowwise: 
##    channel count
##    <chr>   <dbl>
##  1 1.000       0
##  2 2.000       0
##  3 3.000       0
##  4 4.000       0
##  5 5.000       0
##  6 6.000       0
##  7 7.000       0
##  8 8.000       0
##  9 9.000       0
## 10 10.000      0
## # ℹ 2,038 more rows
## 
## [[20]]
## # A tibble: 2,048 × 2
## # Rowwise: 
##    channel count
##    <chr>   <dbl>
##  1 1.000       0
##  2 2.000       0
##  3 3.000       0
##  4 4.000       0
##  5 5.000       0
##  6 6.000       0
##  7 7.000       0
##  8 8.000       0
##  9 9.000       0
## 10 10.000      0
## # ℹ 2,038 more rows
## 
## [[21]]
## # A tibble: 2,048 × 2
## # Rowwise: 
##    channel count
##    <chr>   <dbl>
##  1 1.000       0
##  2 2.000       0
##  3 3.000       0
##  4 4.000       0
##  5 5.000       0
##  6 6.000       0
##  7 7.000       0
##  8 8.000       0
##  9 9.000       0
## 10 10.000      0
## # ℹ 2,038 more rows
## 
## [[22]]
## # A tibble: 2,048 × 2
## # Rowwise: 
##    channel count
##    <chr>   <dbl>
##  1 1.000       0
##  2 2.000       0
##  3 3.000       0
##  4 4.000       0
##  5 5.000       0
##  6 6.000       0
##  7 7.000       0
##  8 8.000       0
##  9 9.000       0
## 10 10.000      0
## # ℹ 2,038 more rows
## 
## [[23]]
## # A tibble: 2,048 × 2
## # Rowwise: 
##    channel count
##    <chr>   <dbl>
##  1 1.000       0
##  2 2.000       0
##  3 3.000       0
##  4 4.000       0
##  5 5.000       0
##  6 6.000       0
##  7 7.000       0
##  8 8.000       0
##  9 9.000       0
## 10 10.000      0
## # ℹ 2,038 more rows
## 
## [[24]]
## # A tibble: 2,048 × 2
## # Rowwise: 
##    channel count
##    <chr>   <dbl>
##  1 1.000       0
##  2 2.000       0
##  3 3.000       0
##  4 4.000       0
##  5 5.000       0
##  6 6.000       0
##  7 7.000       0
##  8 8.000       0
##  9 9.000       0
## 10 10.000      0
## # ℹ 2,038 more rows
## 
## [[25]]
## # A tibble: 2,048 × 2
## # Rowwise: 
##    channel count
##    <chr>   <dbl>
##  1 1.000       0
##  2 2.000       0
##  3 3.000       0
##  4 4.000       0
##  5 5.000       0
##  6 6.000       0
##  7 7.000       0
##  8 8.000       0
##  9 9.000       0
## 10 10.000      0
## # ℹ 2,038 more rows
## 
## [[26]]
## # A tibble: 2,048 × 2
## # Rowwise: 
##    channel count
##    <chr>   <dbl>
##  1 1.000       0
##  2 2.000       0
##  3 3.000       0
##  4 4.000       0
##  5 5.000       0
##  6 6.000       0
##  7 7.000       0
##  8 8.000       0
##  9 9.000       0
## 10 10.000      0
## # ℹ 2,038 more rows
## 
## [[27]]
## # A tibble: 2,048 × 2
## # Rowwise: 
##    channel count
##    <chr>   <dbl>
##  1 1.000       0
##  2 2.000       0
##  3 3.000       0
##  4 4.000       0
##  5 5.000       0
##  6 6.000       0
##  7 7.000       0
##  8 8.000       0
##  9 9.000       0
## 10 10.000      0
## # ℹ 2,038 more rows
## 
## [[28]]
## # A tibble: 2,048 × 2
## # Rowwise: 
##    channel count
##    <chr>   <dbl>
##  1 1.000       0
##  2 2.000       0
##  3 3.000       0
##  4 4.000       0
##  5 5.000       0
##  6 6.000       0
##  7 7.000       0
##  8 8.000       0
##  9 9.000       0
## 10 10.000      0
## # ℹ 2,038 more rows
## 
## [[29]]
## # A tibble: 2,048 × 2
## # Rowwise: 
##    channel count
##    <chr>   <dbl>
##  1 1.000       0
##  2 2.000       0
##  3 3.000       0
##  4 4.000       0
##  5 5.000       0
##  6 6.000       0
##  7 7.000       0
##  8 8.000       0
##  9 9.000       0
## 10 10.000      0
## # ℹ 2,038 more rows
## 
## [[30]]
## # A tibble: 2,048 × 2
## # Rowwise: 
##    channel count
##    <chr>   <dbl>
##  1 1.000       0
##  2 2.000       0
##  3 3.000       0
##  4 4.000       0
##  5 5.000       0
##  6 6.000       0
##  7 7.000       0
##  8 8.000       0
##  9 9.000       0
## 10 10.000      0
## # ℹ 2,038 more rows
## 
## [[31]]
## # A tibble: 2,048 × 2
## # Rowwise: 
##    channel count
##    <chr>   <dbl>
##  1 1.000       0
##  2 2.000       0
##  3 3.000       0
##  4 4.000       0
##  5 5.000       0
##  6 6.000       0
##  7 7.000       0
##  8 8.000       0
##  9 9.000       0
## 10 10.000      0
## # ℹ 2,038 more rows
## 
## [[32]]
## # A tibble: 2,048 × 2
## # Rowwise: 
##    channel count
##    <chr>   <dbl>
##  1 1.000       0
##  2 2.000       0
##  3 3.000       0
##  4 4.000       0
##  5 5.000       0
##  6 6.000       0
##  7 7.000       0
##  8 8.000       0
##  9 9.000       0
## 10 10.000      0
## # ℹ 2,038 more rows
## 
## [[33]]
## # A tibble: 2,048 × 2
## # Rowwise: 
##    channel count
##    <chr>   <dbl>
##  1 1.000       0
##  2 2.000       0
##  3 3.000       0
##  4 4.000       0
##  5 5.000       0
##  6 6.000       0
##  7 7.000       0
##  8 8.000       0
##  9 9.000       0
## 10 10.000      0
## # ℹ 2,038 more rows
## 
## [[34]]
## # A tibble: 2,048 × 2
## # Rowwise: 
##    channel count
##    <chr>   <dbl>
##  1 1.000       0
##  2 2.000       0
##  3 3.000       0
##  4 4.000       0
##  5 5.000       0
##  6 6.000       0
##  7 7.000       0
##  8 8.000       0
##  9 9.000       0
## 10 10.000      0
## # ℹ 2,038 more rows
## 
## [[35]]
## # A tibble: 2,048 × 2
## # Rowwise: 
##    channel count
##    <chr>   <dbl>
##  1 1.000       0
##  2 2.000       0
##  3 3.000       0
##  4 4.000       0
##  5 5.000       0
##  6 6.000       0
##  7 7.000       0
##  8 8.000       0
##  9 9.000       0
## 10 10.000      0
## # ℹ 2,038 more rows
## 
## [[36]]
## # A tibble: 2,048 × 2
## # Rowwise: 
##    channel count
##    <chr>   <dbl>
##  1 1.000       0
##  2 2.000       0
##  3 3.000       0
##  4 4.000       0
##  5 5.000       0
##  6 6.000       0
##  7 7.000       0
##  8 8.000       0
##  9 9.000       0
## 10 10.000      0
## # ℹ 2,038 more rows
## 
## [[37]]
## # A tibble: 2,048 × 2
## # Rowwise: 
##    channel count
##    <chr>   <dbl>
##  1 1.000       0
##  2 2.000       0
##  3 3.000       0
##  4 4.000       0
##  5 5.000       0
##  6 6.000       0
##  7 7.000       0
##  8 8.000       0
##  9 9.000       0
## 10 10.000      0
## # ℹ 2,038 more rows
## 
## [[38]]
## # A tibble: 2,048 × 2
## # Rowwise: 
##    channel count
##    <chr>   <dbl>
##  1 1.000       0
##  2 2.000       0
##  3 3.000       0
##  4 4.000       0
##  5 5.000       0
##  6 6.000       0
##  7 7.000       0
##  8 8.000       0
##  9 9.000       0
## 10 10.000      0
## # ℹ 2,038 more rows
## 
## [[39]]
## # A tibble: 2,048 × 2
## # Rowwise: 
##    channel count
##    <chr>   <dbl>
##  1 1.000       0
##  2 2.000       0
##  3 3.000       0
##  4 4.000       0
##  5 5.000       0
##  6 6.000       0
##  7 7.000       0
##  8 8.000       0
##  9 9.000       0
## 10 10.000      0
## # ℹ 2,038 more rows
## 
## [[40]]
## # A tibble: 2,048 × 2
## # Rowwise: 
##    channel count
##    <chr>   <dbl>
##  1 1.000       0
##  2 2.000       0
##  3 3.000       0
##  4 4.000       0
##  5 5.000       0
##  6 6.000       0
##  7 7.000       0
##  8 8.000       0
##  9 9.000       0
## 10 10.000      0
## # ℹ 2,038 more rows
## 
## [[41]]
## # A tibble: 2,048 × 2
## # Rowwise: 
##    channel count
##    <chr>   <dbl>
##  1 1.000       0
##  2 2.000       0
##  3 3.000       0
##  4 4.000       0
##  5 5.000       0
##  6 6.000       0
##  7 7.000       0
##  8 8.000       0
##  9 9.000       0
## 10 10.000      0
## # ℹ 2,038 more rows
## 
## [[42]]
## # A tibble: 2,048 × 2
## # Rowwise: 
##    channel count
##    <chr>   <dbl>
##  1 1.000       0
##  2 2.000       0
##  3 3.000       0
##  4 4.000       0
##  5 5.000       0
##  6 6.000       0
##  7 7.000       0
##  8 8.000       0
##  9 9.000       0
## 10 10.000      0
## # ℹ 2,038 more rows
## 
## [[43]]
## # A tibble: 2,048 × 2
## # Rowwise: 
##    channel count
##    <chr>   <dbl>
##  1 1.000       0
##  2 2.000       0
##  3 3.000       0
##  4 4.000       0
##  5 5.000       0
##  6 6.000       0
##  7 7.000       0
##  8 8.000       0
##  9 9.000       0
## 10 10.000      0
## # ℹ 2,038 more rows
## 
## [[44]]
## # A tibble: 2,048 × 2
## # Rowwise: 
##    channel count
##    <chr>   <dbl>
##  1 1.000       0
##  2 2.000       0
##  3 3.000       0
##  4 4.000       0
##  5 5.000       0
##  6 6.000       0
##  7 7.000       0
##  8 8.000       0
##  9 9.000       0
## 10 10.000      0
## # ℹ 2,038 more rows
## 
## [[45]]
## # A tibble: 2,048 × 2
## # Rowwise: 
##    channel count
##    <chr>   <dbl>
##  1 1.000       0
##  2 2.000       0
##  3 3.000       0
##  4 4.000       0
##  5 5.000       0
##  6 6.000       0
##  7 7.000       0
##  8 8.000       0
##  9 9.000       0
## 10 10.000      0
## # ℹ 2,038 more rows
## 
## [[46]]
## # A tibble: 2,048 × 2
## # Rowwise: 
##    channel count
##    <chr>   <dbl>
##  1 1.000       0
##  2 2.000       0
##  3 3.000       0
##  4 4.000       0
##  5 5.000       0
##  6 6.000       0
##  7 7.000       0
##  8 8.000       0
##  9 9.000       0
## 10 10.000      0
## # ℹ 2,038 more rows
## 
## [[47]]
## # A tibble: 2,048 × 2
## # Rowwise: 
##    channel count
##    <chr>   <dbl>
##  1 1.000       0
##  2 2.000       0
##  3 3.000       0
##  4 4.000       0
##  5 5.000       0
##  6 6.000       0
##  7 7.000       0
##  8 8.000       0
##  9 9.000       0
## 10 10.000      0
## # ℹ 2,038 more rows
## 
## [[48]]
## # A tibble: 2,048 × 2
## # Rowwise: 
##    channel count
##    <chr>   <dbl>
##  1 1.000       0
##  2 2.000       0
##  3 3.000       0
##  4 4.000       0
##  5 5.000       0
##  6 6.000       0
##  7 7.000       0
##  8 8.000       0
##  9 9.000       0
## 10 10.000      0
## # ℹ 2,038 more rows
## 
## [[49]]
## # A tibble: 2,048 × 2
## # Rowwise: 
##    channel count
##    <chr>   <dbl>
##  1 1.000       0
##  2 2.000       0
##  3 3.000       0
##  4 4.000       0
##  5 5.000       0
##  6 6.000       0
##  7 7.000       0
##  8 8.000       0
##  9 9.000       0
## 10 10.000      0
## # ℹ 2,038 more rows
## 
## [[50]]
## # A tibble: 2,048 × 2
## # Rowwise: 
##    channel count
##    <chr>   <dbl>
##  1 1.000       0
##  2 2.000       0
##  3 3.000       0
##  4 4.000       0
##  5 5.000       0
##  6 6.000       0
##  7 7.000       0
##  8 8.000       0
##  9 9.000       0
## 10 10.000      0
## # ℹ 2,038 more rows
## 
## [[51]]
## # A tibble: 2,048 × 2
## # Rowwise: 
##    channel count
##    <chr>   <dbl>
##  1 1.000       0
##  2 2.000       0
##  3 3.000       0
##  4 4.000       0
##  5 5.000       0
##  6 6.000       0
##  7 7.000       0
##  8 8.000       0
##  9 9.000       0
## 10 10.000      0
## # ℹ 2,038 more rows
## 
## [[52]]
## # A tibble: 2,048 × 2
## # Rowwise: 
##    channel count
##    <chr>   <dbl>
##  1 1.000       0
##  2 2.000       0
##  3 3.000       0
##  4 4.000       0
##  5 5.000       0
##  6 6.000       0
##  7 7.000       0
##  8 8.000       0
##  9 9.000       0
## 10 10.000      0
## # ℹ 2,038 more rows
## 
## [[53]]
## # A tibble: 2,048 × 2
## # Rowwise: 
##    channel count
##    <chr>   <dbl>
##  1 1.000       0
##  2 2.000       0
##  3 3.000       0
##  4 4.000       0
##  5 5.000       0
##  6 6.000       0
##  7 7.000       0
##  8 8.000       0
##  9 9.000       0
## 10 10.000      0
## # ℹ 2,038 more rows
## 
## [[54]]
## # A tibble: 2,048 × 2
## # Rowwise: 
##    channel count
##    <chr>   <dbl>
##  1 1.000       0
##  2 2.000       0
##  3 3.000       0
##  4 4.000       0
##  5 5.000       0
##  6 6.000       0
##  7 7.000       0
##  8 8.000       0
##  9 9.000       0
## 10 10.000      0
## # ℹ 2,038 more rows
## 
## [[55]]
## # A tibble: 2,048 × 2
## # Rowwise: 
##    channel count
##    <chr>   <dbl>
##  1 1.000       0
##  2 2.000       0
##  3 3.000       0
##  4 4.000       0
##  5 5.000       0
##  6 6.000       0
##  7 7.000       0
##  8 8.000       0
##  9 9.000       0
## 10 10.000      0
## # ℹ 2,038 more rows
## 
## [[56]]
## # A tibble: 2,048 × 2
## # Rowwise: 
##    channel count
##    <chr>   <dbl>
##  1 1.000       0
##  2 2.000       0
##  3 3.000       0
##  4 4.000       0
##  5 5.000       0
##  6 6.000       0
##  7 7.000       0
##  8 8.000       0
##  9 9.000       0
## 10 10.000      0
## # ℹ 2,038 more rows
## 
## [[57]]
## # A tibble: 2,048 × 2
## # Rowwise: 
##    channel count
##    <chr>   <dbl>
##  1 1.000       0
##  2 2.000       0
##  3 3.000       0
##  4 4.000       0
##  5 5.000       0
##  6 6.000       0
##  7 7.000       0
##  8 8.000       0
##  9 9.000       0
## 10 10.000      0
## # ℹ 2,038 more rows
## 
## [[58]]
## # A tibble: 2,048 × 2
## # Rowwise: 
##    channel count
##    <chr>   <dbl>
##  1 1.000       0
##  2 2.000       0
##  3 3.000       0
##  4 4.000       0
##  5 5.000       0
##  6 6.000       0
##  7 7.000       0
##  8 8.000       0
##  9 9.000       0
## 10 10.000      0
## # ℹ 2,038 more rows
## 
## [[59]]
## # A tibble: 2,048 × 2
## # Rowwise: 
##    channel count
##    <chr>   <dbl>
##  1 1.000       0
##  2 2.000       0
##  3 3.000       0
##  4 4.000       0
##  5 5.000       0
##  6 6.000       0
##  7 7.000       0
##  8 8.000       0
##  9 9.000       0
## 10 10.000      0
## # ℹ 2,038 more rows
## 
## [[60]]
## # A tibble: 2,048 × 2
## # Rowwise: 
##    channel count
##    <chr>   <dbl>
##  1 1.000       0
##  2 2.000       0
##  3 3.000       0
##  4 4.000       0
##  5 5.000       0
##  6 6.000       0
##  7 7.000       0
##  8 8.000       0
##  9 9.000       0
## 10 10.000      0
## # ℹ 2,038 more rows
…
