7.2 Selecting Samples | Using Itrax Data in R
…
  mutate(core = if_else(breaks_upper >= min(CD166_19_S1$xrf$depth) & breaks_upper <= max(CD166_19_S1$xrf$depth), "c1", "")) %>%
  mutate(core = if_else(breaks_upper >= min(CD166_19_S2$xrf$depth) & breaks_upper <= max(CD166_19_S2$xrf$depth), "c2", core)) %>%
  mutate(core = if_else(breaks_upper >= min(CD166_19_S3$xrf$depth) & breaks_upper <= max(CD166_19_S3$xrf$depth), "c3", core)) %>%
  
  mutate(core_position_lower = ifelse(core == "c1", breaks_lower-min(CD166_19_S1$xrf$depth), NA)) %>%
  mutate(core_position_lower = ifelse(core == "c2", breaks_lower-min(CD166_19_S2$xrf$depth), core_position_lower)) %>%
  mutate(core_position_lower = ifelse(core == "c3", breaks_lower-min(CD166_19_S3$xrf$depth), core_position_lower)) %>%
  
  mutate(core_position_upper = ifelse(core == "c1", breaks_upper-min(CD166_19_S1$xrf$depth), NA)) %>%
  mutate(core_position_upper = ifelse(core == "c2", breaks_upper-min(CD166_19_S2$xrf$depth), core_position_upper)) %>%
  mutate(core_position_upper = ifelse(core == "c3", breaks_upper-min(CD166_19_S3$xrf$depth), core_position_upper)) %>%
  
  select(core, core_position_lower, core_position_upper)

## # A tibble: 60 × 3
##    core  core_position_lower core_position_upper
##    <chr>               <dbl>               <dbl>
##  1 c1                     80                  90
##  2 c1                    330                 340
##  3 c1                    430                 440
##  4 c1                    440                 450
##  5 c1                    460                 470
##  6 c1                    670                 680
##  7 c1                    770                 780
##  8 c1                    840                 850
##  9 c1                    930                 940
## 10 c1                   1020                1030
## # ℹ 50 more rows
